Turns bGMYC Results Into a Tibble — bgmyc_tbl • delimtools
…
# create a tibble
bgmyc_df <- bgmyc_tbl(bgmyc_res, ppcutoff = 0.05)

# check
bgmyc_df
#> # A tibble: 137 × 2
#>    labels     bgmyc
#>    <chr>      <int>
#>  1 GU701784.1     1
#>  2 GU701785.1     1
#>  3 JN988869.1     1
#>  4 MH780911.1     1
#>  5 OR732927.1     1
#>  6 OR732928.1     1
#>  7 MZ050845.1     2
#>  8 MZ051032.1     2
#>  9 MZ051706.1     2
#> 10 MZ051794.1     2
#> # ℹ 127 more rows
…
