Join Multiple Species Delimitation Methods Outputs — delim_join • delimtools
…
# check
all_delims
#> # A tibble: 137 × 4
#>    labels     bgmyc gmyc  locmin
#>    <chr>      <chr> <chr> <chr> 
#>  1 GU701784.1 sp1   sp1   sp1   
#>  2 GU701785.1 sp1   sp1   sp1   
#>  3 MH780911.1 sp1   sp1   sp1   
#>  4 OR732927.1 sp1   sp1   sp1   
#>  5 JN988869.1 sp1   sp1   sp1   
#>  6 OR732928.1 sp1   sp1   sp1   
#>  7 MZ504448.1 sp2   sp2   sp2   
#>  8 MZ504450.1 sp2   sp2   sp2   
#>  9 MZ504454.1 sp2   sp2   sp2   
#> 10 MZ504457.1 sp3   sp3   sp3   
#> # ℹ 127 more rows
…
