Extract Labels and Colors from Species Delimitation Partitions — get_delim_cols • delimtools
…
# get haplotypes
hap_tbl <- haplotype_tbl(geophagus)
#> Warning: ⚠ You have missing data "('N','-' '?')" or ambiguity inside your sequence, i.e.
#> not padding the ends, and this may have unintended consequences later, as they
#> have now been removed!
#> ℹ The names of the samples are bellow.
#> GU701784.1, GU701785.1

# extract colors for consensus
get_delim_cols(p, delimname= "consensus", hap_tbl= hap_tbl)
#> # A tibble: 354 × 6
#>    labels     method    spp   fill    colour  status   
#>    <chr>      <fct>     <fct> <chr>   <chr>   <chr>    
#>  1 MZ504432.1 consensus sp3   #B0597C #B0597C haplotype
#>  2 MZ504431.1 consensus sp3   #B0597C #B0597C haplotype
#>  3 MZ504433.1 consensus sp3   #B0597C #B0597C haplotype
#>  4 MZ504415.1 consensus sp3   #B0597C #B0597C haplotype
#>  5 MZ504442.1 consensus sp3   #B0597C #B0597C haplotype
#>  6 MZ504420.1 consensus sp3   #B0597C #B0597C haplotype
#>  7 MZ504424.1 consensus sp3   #B0597C #B0597C haplotype
#>  8 MZ504400.1 consensus sp3   #B0597C #B0597C haplotype
#>  9 MZ504414.1 consensus sp3   #B0597C #B0597C haplotype
#> 10 MZ504394.1 consensus sp3   #B0597C #B0597C haplotype
#> # ℹ 344 more rows
…
