Introduction to delimtools • delimtools
…
Warning: be carefull when using
collapseSubstrings when using non-coding genes
(e.g. 12S/16S rRNAs)

To visualize the relationships between these unique haplotypes and
the samples, we may use the haplotype_tbl function:

haplotype_tbl(geophagus, clean= TRUE, collapseSubstrings = TRUE, verbose = FALSE)
#> # A tibble: 137 × 3
#>    labels     n_seqs collapsed                                                  
#>    <chr>       <dbl> <chr>                                                      
#>  1 MZ504318.1     38 MZ504328.1, MZ504313.1, MZ504311.1, MZ504312.1, MZ504309.1…
#>  2 MZ504540.1     20 MZ504505.1, MZ504553.1, MZ504554.1, MZ504552.1, MZ504542.1…
#>  3 MZ504420.1     19 MZ504417.1, MZ504437.1, MZ504425.1, MZ504427.1, MZ504422.1…
#>  4 MZ504488.1     16 MZ504538.1, KU568830.1, JN026709.1, MZ504522.1, MZ504523.1…
#>  5 MZ504484.1     15 MZ504496.1, MZ504487.1, MZ504573.1, MZ504560.1, MZ504497.1…
#>  6 MZ504462.1     14 MZ504479.1, MZ504477.1, MZ504481.1, MZ504476.1, MZ504463.1…
#>  7 MZ504375.1     13 MZ504372.1, MZ504382.1, MZ504381.1, MZ504379.1, MZ504383.1…
#>  8 MZ504535.1      8 MZ504515.1, MZ504525.1, MZ504533.1, MZ504534.1, MZ504536.1…
#>  9 MZ504393.1      8 MZ504445.1, MZ504413.1, MZ504407.1, MZ504408.1, MZ504410.1…
#> 10 MZ504400.1      6 MZ504404.1, MZ504401.1, MZ504402.1, MZ504403.1, MZ504399.1 
#> # ℹ 127 more rows

You may also collapse other types of information by using
collapse_others. We can collapse our metadata to see which
species and sampling localities are associated with each haplotype:

haps_df <- haplotype_tbl(geophagus, verbose = FALSE)

collapse_others(data= geophagus_info, 
                hap_tbl= haps_df, 
                labels= "gbAccession", 
                cols= c("scientificName", "country"))
#> # A tibble: 137 × 5
#>    labels     n_seqs collapsed          collapsed_scientific…¹ collapsed_country
#>    <chr>       <dbl> <chr>              <chr>                  <chr>            
#>  1 MZ504318.1     38 MZ504328.1, MZ504… Geophagus_proximus     Brazil: Lago do …
#>  2 MZ504540.1     20 MZ504505.1, MZ504… Geophagus_altifrons, … Brazil: Tocantin…
#>  3 MZ504420.1     19 MZ504417.1, MZ504… Geophagus_sp.1         Brazil: Branco- …
#>  4 MZ504488.1     16 MZ504538.1, KU568… Geophagus_altifrons, … Brazil: Água Boa…
#>  5 MZ504484.1     15 MZ504496.1, MZ504… Geophagus_altifrons    Brazil: São Seba…
#>  6 MZ504462.1     14 MZ504479.1, MZ504… Geophagus_sp.3         Brazil: Iriri- P…
#>  7 MZ504375.1     13 MZ504372.1, MZ504… Geophagus_megasema     Brazil: Mamirauá…
#>  8 MZ504535.1      8 MZ504515.1, MZ504… Geophagus_altifrons    Brazil: Maués-Aç…
#>  9 MZ504393.1      8 MZ504445.1, MZ504… Geophagus_sp.1         Brazil: Xingu- u…
#> 10 MZ504400.1      6 MZ504404.1, MZ504… Geophagus_sp.1         Brazil: Demeni- …
#> # ℹ 127 more rows
#> # ℹ abbreviated name: ¹​collapsed_scientificName
…
dat_all_ali <- here::here("vignettes/geophagus.fasta")

abgd_df <- abgd_tbl(infile= dat_all_ali, 
                    exe= "/usr/local/bin/abgd",
                    model= 3,
                    outfolder= here::here("vignettes"),
                    haps= haps_df$labels)
#> ℹ ABGD files are located in directory '/home/pedro/Documentos/Projetos/Packages/delimtools/vignettes'.

Then we can check abgd_df

print(abgd_df)
#> # A tibble: 137 × 2
#>    labels      abgd
#>    <chr>      <int>
#>  1 MZ504301.1     1
#>  2 MZ504318.1     1
#>  3 MZ504341.1     1
#>  4 MZ504337.1     1
#>  5 MZ504342.1     1
#>  6 MZ504304.1     1
#>  7 MZ504332.1     1
#>  8 MZ504343.1     1
#>  9 MZ504315.1     1
#> 10 MZ504345.1     1
#> # ℹ 127 more rows
ASAP

We can run ASAP by using the asap_tbl function. This
function requires a PATH for a FASTA file as input for analysis and a
PATH for the ASAP executable:

asap_df <- asap_tbl(infile= dat_all_ali,
                    exe= "/usr/local/bin/asap",
                    haps= haps_df$labels,
                    outfolder = here::here("vignettes"),
                    model= 3)
#> ℹ ASAP files are located in directory '/home/pedro/Documentos/Projetos/Packages/delimtools/vignettes'.

print(asap_df)
#> # A tibble: 137 × 2
#>    labels      asap
#>    <chr>      <int>
#>  1 MZ504301.1     1
#>  2 MZ504318.1     1
#>  3 MZ504332.1     1
#>  4 MZ504343.1     1
#>  5 MZ504304.1     1
#>  6 MZ504342.1     1
#>  7 MZ504341.1     1
#>  8 MZ504315.1     1
#>  9 MZ504345.1     1
#> 10 MZ504337.1     1
#> # ℹ 127 more rows
…
GMYC outputs a list containing several results. We can use
gmyc_tbl to extract the clusters in a tbl_df
format:

gmyc_df <- gmyc_tbl(gmyc_res)

print(gmyc_df)
#> # A tibble: 137 × 2
#>    labels      gmyc
#>    <chr>      <int>
#>  1 GU701784.1     1
#>  2 GU701785.1     1
#>  3 MH780911.1     1
#>  4 OR732927.1     1
#>  5 JN988869.1     1
#>  6 OR732928.1     1
#>  7 MZ504387.1     2
#>  8 MZ504388.1     2
#>  9 MZ504369.1     2
#> 10 MZ504390.1     2
#> # ℹ 127 more rows
…
bGMYC outputs a list containing several results. We can use
bgmyc_tbl to extract the clusters in a tbl_df
format using 0.05 as posterior probability threshold for
clustering samples into species partitions:

bgmyc_df <- bgmyc_tbl(bgmyc_res, ppcutoff = 0.05)

print(bgmyc_df)
#> # A tibble: 137 × 2
#>    labels     bgmyc
#>    <chr>      <int>
#>  1 GU701784.1     1
#>  2 GU701785.1     1
#>  3 JN988869.1     1
#>  4 MH780911.1     1
#>  5 OR732927.1     1
#>  6 OR732928.1     1
#>  7 MZ050845.1     2
#>  8 MZ051032.1     2
#>  9 MZ051706.1     2
#> 10 MZ051794.1     2
#> # ℹ 127 more rows
…
Since Local Minima output is a numeric vector, we need
to use locmin_tbl to get our species partitions in a
tbl_df format:

locmin_df <- locmin_tbl(mat, 
                        threshold= lmin$localMinima[1],
                        haps= haps_df$labels)

print(locmin_df)
#> # A tibble: 137 × 2
#>    labels     locmin
#>    <chr>       <int>
#>  1 MZ504301.1      1
#>  2 MZ504318.1      1
#>  3 MZ504341.1      1
#>  4 MZ504337.1      1
#>  5 MZ504342.1      1
#>  6 MZ504304.1      1
#>  7 MZ504332.1      1
#>  8 MZ504343.1      1
#>  9 MZ504315.1      1
#> 10 MZ504345.1      1
#> # ℹ 127 more rows
…
treedist_df <- locmin_tbl(tr_mat,
                          threshold = tr_lmin$localMinima[1],
                          delimname = "treedist")

print(treedist_df)
#> # A tibble: 137 × 2
#>    labels     treedist
#>    <chr>         <int>
#>  1 GU701784.1        1
#>  2 GU701785.1        1
#>  3 JN988869.1        1
#>  4 MH780911.1        1
#>  5 OR732927.1        1
#>  6 OR732928.1        1
#>  7 MZ050845.1        2
#>  8 MZ051032.1        2
#>  9 MZ051706.1        2
#> 10 MZ051794.1        2
#> # ℹ 127 more rows

Fixed threshold

We can use locmin_tbl to create a species partition
using a fixed threshold. For example, we can use a threshold of 2% to
generate species partitions:

percent_df <- locmin_tbl(mat, threshold = 0.02, haps= haps_df$labels, delimname = "percent")

print(percent_df)
#> # A tibble: 137 × 2
#>    labels     percent
#>    <chr>        <int>
#>  1 MZ504301.1       1
#>  2 MZ504318.1       1
#>  3 MZ504341.1       1
#>  4 MZ504337.1       1
#>  5 MZ504342.1       1
#>  6 MZ504304.1       1
#>  7 MZ504332.1       1
#>  8 MZ504343.1       1
#>  9 MZ504315.1       1
#> 10 MZ504345.1       1
#> # ℹ 127 more rows

Morphology

We can also turn species ranks or results from morphological analysis
into a species partition by using morph_tbl. For
geophagus dataset, we will use the scientific names in
geophagus_info:

morph_df <- morph_tbl(labels= geophagus_info$gbAccession, 
                      sppVector= geophagus_info$scientificName) |>
  dplyr::filter(labels %in% haps_df$labels)

print(morph_df)
#> # A tibble: 137 × 2
#>    labels     morph
#>    <chr>      <int>
#>  1 MZ504501.1     1
#>  2 MZ504504.1     1
#>  3 MZ504510.1     1
#>  4 MZ504543.1     1
#>  5 MZ504545.1     1
#>  6 MZ504488.1     1
#>  7 MZ504483.1     1
#>  8 MZ504558.1     1
#>  9 MZ504484.1     1
#> 10 MZ504502.1     1
#> # ℹ 127 more rows
…
#> 
#> 
#> |method   | partitions|
#> |:--------|----------:|
#> |gmyc     |         21|
#> |locmin   |         21|
#> |abgd     |         19|
#> |bgmyc    |         19|
#> |ptp      |         17|
#> |morph    |         16|
#> |asap     |         14|
#> |mptp     |         14|
#> |percent  |         12|
#> |treedist |          7|
#> # A tibble: 137 × 11
#>    labels     abgd  asap  bgmyc gmyc  locmin morph mptp  percent ptp   treedist
#>    <chr>      <chr> <chr> <chr> <chr> <chr>  <chr> <chr> <chr>   <chr> <chr>   
#>  1 MZ504301.1 sp1   sp20  sp1   sp1   sp1    sp36  sp1   sp40    sp1   sp44    
#>  2 MZ504318.1 sp1   sp20  sp1   sp1   sp1    sp36  sp1   sp40    sp1   sp44    
#>  3 MZ504341.1 sp1   sp20  sp1   sp1   sp1    sp36  sp1   sp40    sp1   sp44    
#>  4 MZ504337.1 sp1   sp20  sp1   sp1   sp1    sp36  sp1   sp40    sp1   sp44    
#>  5 MZ504342.1 sp1   sp20  sp1   sp1   sp1    sp36  sp1   sp40    sp1   sp44    
#>  6 MZ504304.1 sp1   sp20  sp1   sp1   sp1    sp36  sp1   sp40    sp1   sp44    
#>  7 MZ504332.1 sp1   sp20  sp1   sp1   sp1    sp36  sp1   sp40    sp1   sp44    
#>  8 MZ504343.1 sp1   sp20  sp1   sp1   sp1    sp36  sp1   sp40    sp1   sp44    
#>  9 MZ504315.1 sp1   sp20  sp1   sp1   sp1    sp36  sp1   sp40    sp1   sp44    
#> 10 MZ504345.1 sp1   sp20  sp1   sp1   sp1    sp36  sp1   sp40    sp1   sp44    
#> # ℹ 127 more rows
…
#> ℹ Check below the number of species partitions per method:
#> 
#> 
#> |method  | partitions|
#> |:-------|----------:|
#> |gmyc    |         21|
#> |locmin  |         21|
#> |abgd    |         19|
#> |bgmyc   |         19|
#> |ptp     |         17|
#> |morph   |         16|
#> |asap    |         14|
#> |mptp    |         14|
#> |percent |         12|
#> # A tibble: 137 × 10
#>    labels     abgd  asap  bgmyc gmyc  locmin morph mptp  percent ptp  
#>    <chr>      <chr> <chr> <chr> <chr> <chr>  <chr> <chr> <chr>   <chr>
#>  1 MZ504301.1 sp1   sp20  sp1   sp1   sp1    sp36  sp1   sp40    sp1  
#>  2 MZ504318.1 sp1   sp20  sp1   sp1   sp1    sp36  sp1   sp40    sp1  
#>  3 MZ504341.1 sp1   sp20  sp1   sp1   sp1    sp36  sp1   sp40    sp1  
#>  4 MZ504337.1 sp1   sp20  sp1   sp1   sp1    sp36  sp1   sp40    sp1  
#>  5 MZ504342.1 sp1   sp20  sp1   sp1   sp1    sp36  sp1   sp40    sp1  
#>  6 MZ504304.1 sp1   sp20  sp1   sp1   sp1    sp36  sp1   sp40    sp1  
#>  7 MZ504332.1 sp1   sp20  sp1   sp1   sp1    sp36  sp1   sp40    sp1  
#>  8 MZ504343.1 sp1   sp20  sp1   sp1   sp1    sp36  sp1   sp40    sp1  
#>  9 MZ504315.1 sp1   sp20  sp1   sp1   sp1    sp36  sp1   sp40    sp1  
#> 10 MZ504345.1 sp1   sp20  sp1   sp1   sp1    sp36  sp1   sp40    sp1  
#> # ℹ 127 more rows
…
