Estimate a Majority-Vote Consensus — delim_consensus • delimtools
…
    Author

    Pedro S. Bittencourt

    Examples

# estimate a majority vote consensus
delim_consensus <- delim_consensus(geophagus_delims, n_match= 5)

# check
delim_consensus
#> # A tibble: 137 × 10
#>    labels     abgd  asap  bgmyc gmyc  locmin morph mptp  ptp   consensus
#>    <chr>      <chr> <chr> <chr> <chr> <chr>  <chr> <chr> <chr> <chr>    
#>  1 MZ504301.1 sp1   sp20  sp1   sp1   sp1    sp37  sp38  sp1   sp1      
#>  2 MZ504318.1 sp1   sp20  sp1   sp1   sp1    sp37  sp38  sp1   sp1      
#>  3 MZ504341.1 sp1   sp20  sp1   sp1   sp1    sp37  sp38  sp1   sp1      
#>  4 MZ504337.1 sp1   sp20  sp1   sp1   sp1    sp37  sp38  sp1   sp1      
#>  5 MZ504342.1 sp1   sp20  sp1   sp1   sp1    sp37  sp38  sp1   sp1      
#>  6 MZ504304.1 sp1   sp20  sp1   sp1   sp1    sp37  sp38  sp1   sp1      
#>  7 MZ504332.1 sp1   sp20  sp1   sp1   sp1    sp37  sp38  sp1   sp1      
#>  8 MZ504343.1 sp1   sp20  sp1   sp1   sp1    sp37  sp38  sp1   sp1      
#>  9 MZ504315.1 sp1   sp20  sp1   sp1   sp1    sp37  sp38  sp1   sp1      
#> 10 MZ504345.1 sp1   sp20  sp1   sp1   sp1    sp37  sp38  sp1   sp1      
#> # ℹ 127 more rows
…
